hw/sim/log/sim_tb_fc1_multi_block_shared_input.log
Chronologic VCS simulator copyright 1991-2018
Contains Synopsys proprietary information.
Compiler version O-2018.09-SP2_Full64; Runtime version O-2018.09-SP2_Full64;  Mar  7 23:59 2026
Using INPUT_HEX_FILE from plusarg: ../route_b_output/input_0.hex
Using WEIGHT_HEX_FILE from plusarg: ../route_b_output/fc1_weight_int8.hex
Using FC1_BIAS_FILE from plusarg: ../route_b_output/fc1_bias_int32.hex
Using WEIGHT_HEX_FILE from plusarg: ../route_b_output/fc1_weight_int8.hex
Using FC1_BIAS_FILE from plusarg: ../route_b_output/fc1_bias_int32.hex
Using WEIGHT_HEX_FILE from plusarg: ../route_b_output/fc1_weight_int8.hex
Using FC1_BIAS_FILE from plusarg: ../route_b_output/fc1_bias_int32.hex
Using WEIGHT_HEX_FILE from plusarg: ../route_b_output/fc1_weight_int8.hex
Using FC1_BIAS_FILE from plusarg: ../route_b_output/fc1_bias_int32.hex
Using WEIGHT_HEX_FILE from plusarg: ../route_b_output/fc1_weight_int8.hex
Using FC1_BIAS_FILE from plusarg: ../route_b_output/fc1_bias_int32.hex
Using WEIGHT_HEX_FILE from plusarg: ../route_b_output/fc1_weight_int8.hex
Using FC1_BIAS_FILE from plusarg: ../route_b_output/fc1_bias_int32.hex
Using WEIGHT_HEX_FILE from plusarg: ../route_b_output/fc1_weight_int8.hex
Using FC1_BIAS_FILE from plusarg: ../route_b_output/fc1_bias_int32.hex
Using WEIGHT_HEX_FILE from plusarg: ../route_b_output/fc1_weight_int8.hex
Using FC1_BIAS_FILE from plusarg: ../route_b_output/fc1_bias_int32.hex
TB using FC1_ACC_FILE: ../route_b_output/fc1_acc_0.hex
time=0 : TB start, PAR_OB=8, BASE_OB=0, OUT_DIM=128
time=0 clk=0 rst_n=0 start=0 busy=0 done=0
time=5000 clk=1 rst_n=0 start=0 busy=0 done=0
time=10000 clk=0 rst_n=0 start=0 busy=0 done=0
time=12000 clk=0 rst_n=1 start=0 busy=0 done=0
time=15000 clk=1 rst_n=1 start=1 busy=0 done=0
time=20000 clk=0 rst_n=1 start=1 busy=0 done=0
time=25000 clk=1 rst_n=1 start=0 busy=1 done=0
time=30000 clk=0 rst_n=1 start=0 busy=1 done=0
time=35000 clk=1 rst_n=1 start=0 busy=1 done=0
time=40000 clk=0 rst_n=1 start=0 busy=1 done=0
time=45000 clk=1 rst_n=1 start=0 busy=1 done=0
time=50000 clk=0 rst_n=1 start=0 busy=1 done=0
time=55000 clk=1 rst_n=1 start=0 busy=1 done=0
time=60000 clk=0 rst_n=1 start=0 busy=1 done=0
time=65000 clk=1 rst_n=1 start=0 busy=1 done=0
time=70000 clk=0 rst_n=1 start=0 busy=1 done=0
time=75000 clk=1 rst_n=1 start=0 busy=1 done=0
time=80000 clk=0 rst_n=1 start=0 busy=1 done=0
time=85000 clk=1 rst_n=1 start=0 busy=1 done=0
time=90000 clk=0 rst_n=1 start=0 busy=1 done=0
time=95000 clk=1 rst_n=1 start=0 busy=1 done=0
time=100000 clk=0 rst_n=1 start=0 busy=1 done=0
time=105000 clk=1 rst_n=1 start=0 busy=1 done=0
time=110000 clk=0 rst_n=1 start=0 busy=1 done=0
time=115000 clk=1 rst_n=1 start=0 busy=1 done=0
time=120000 clk=0 rst_n=1 start=0 busy=1 done=0
time=125000 clk=1 rst_n=1 start=0 busy=1 done=0
time=130000 clk=0 rst_n=1 start=0 busy=1 done=0
time=135000 clk=1 rst_n=1 start=0 busy=1 done=0
time=140000 clk=0 rst_n=1 start=0 busy=1 done=0
time=145000 clk=1 rst_n=1 start=0 busy=1 done=0
time=150000 clk=0 rst_n=1 start=0 busy=1 done=0
time=155000 clk=1 rst_n=1 start=0 busy=1 done=0
time=160000 clk=0 rst_n=1 start=0 busy=1 done=0
time=165000 clk=1 rst_n=1 start=0 busy=1 done=0
time=170000 clk=0 rst_n=1 start=0 busy=1 done=0
time=175000 clk=1 rst_n=1 start=0 busy=1 done=0
time=180000 clk=0 rst_n=1 start=0 busy=1 done=0
time=185000 clk=1 rst_n=1 start=0 busy=1 done=0
time=190000 clk=0 rst_n=1 start=0 busy=1 done=0
time=195000 clk=1 rst_n=1 start=0 busy=1 done=0
time=200000 clk=0 rst_n=1 start=0 busy=1 done=0
time=205000 clk=1 rst_n=1 start=0 busy=1 done=0
time=210000 clk=0 rst_n=1 start=0 busy=1 done=0
time=215000 clk=1 rst_n=1 start=0 busy=1 done=0
time=220000 clk=0 rst_n=1 start=0 busy=1 done=0
time=225000 clk=1 rst_n=1 start=0 busy=1 done=0
time=230000 clk=0 rst_n=1 start=0 busy=1 done=0
time=235000 clk=1 rst_n=1 start=0 busy=1 done=0
time=240000 clk=0 rst_n=1 start=0 busy=1 done=0
time=245000 clk=1 rst_n=1 start=0 busy=1 done=0
time=250000 clk=0 rst_n=1 start=0 busy=1 done=0
time=255000 clk=1 rst_n=1 start=0 busy=1 done=0
time=260000 clk=0 rst_n=1 start=0 busy=1 done=0
time=265000 clk=1 rst_n=1 start=0 busy=1 done=0
time=270000 clk=0 rst_n=1 start=0 busy=1 done=0
time=275000 clk=1 rst_n=1 start=0 busy=1 done=0
time=280000 clk=0 rst_n=1 start=0 busy=1 done=0
time=285000 clk=1 rst_n=1 start=0 busy=1 done=0
time=290000 clk=0 rst_n=1 start=0 busy=1 done=0
time=295000 clk=1 rst_n=1 start=0 busy=1 done=0
time=300000 clk=0 rst_n=1 start=0 busy=1 done=0
time=305000 clk=1 rst_n=1 start=0 busy=1 done=0
time=310000 clk=0 rst_n=1 start=0 busy=1 done=0
time=315000 clk=1 rst_n=1 start=0 busy=1 done=0
time=320000 clk=0 rst_n=1 start=0 busy=1 done=0
time=325000 clk=1 rst_n=1 start=0 busy=1 done=0
time=330000 clk=0 rst_n=1 start=0 busy=1 done=0
time=335000 clk=1 rst_n=1 start=0 busy=1 done=0
time=340000 clk=0 rst_n=1 start=0 busy=1 done=0
time=345000 clk=1 rst_n=1 start=0 busy=1 done=0
time=350000 clk=0 rst_n=1 start=0 busy=1 done=0
time=355000 clk=1 rst_n=1 start=0 busy=1 done=0
time=360000 clk=0 rst_n=1 start=0 busy=1 done=0
time=365000 clk=1 rst_n=1 start=0 busy=1 done=0
time=370000 clk=0 rst_n=1 start=0 busy=1 done=0
time=375000 clk=1 rst_n=1 start=0 busy=1 done=0
time=380000 clk=0 rst_n=1 start=0 busy=1 done=0
time=385000 clk=1 rst_n=1 start=0 busy=1 done=0
time=390000 clk=0 rst_n=1 start=0 busy=1 done=0
time=395000 clk=1 rst_n=1 start=0 busy=1 done=0
time=400000 clk=0 rst_n=1 start=0 busy=1 done=0
time=405000 clk=1 rst_n=1 start=0 busy=1 done=0
time=410000 clk=0 rst_n=1 start=0 busy=1 done=0
time=415000 clk=1 rst_n=1 start=0 busy=1 done=0
time=420000 clk=0 rst_n=1 start=0 busy=1 done=0
time=425000 clk=1 rst_n=1 start=0 busy=1 done=0
time=430000 clk=0 rst_n=1 start=0 busy=1 done=0
time=435000 clk=1 rst_n=1 start=0 busy=1 done=0
time=440000 clk=0 rst_n=1 start=0 busy=1 done=0
time=445000 clk=1 rst_n=1 start=0 busy=1 done=0
time=450000 clk=0 rst_n=1 start=0 busy=1 done=0
time=455000 clk=1 rst_n=1 start=0 busy=1 done=0
time=460000 clk=0 rst_n=1 start=0 busy=1 done=0
time=465000 clk=1 rst_n=1 start=0 busy=1 done=0
time=470000 clk=0 rst_n=1 start=0 busy=1 done=0
time=475000 clk=1 rst_n=1 start=0 busy=1 done=0
time=480000 clk=0 rst_n=1 start=0 busy=1 done=0
time=485000 clk=1 rst_n=1 start=0 busy=1 done=0
time=490000 clk=0 rst_n=1 start=0 busy=1 done=0
time=495000 clk=1 rst_n=1 start=0 busy=1 done=0
time=500000 clk=0 rst_n=1 start=0 busy=1 done=0
time=505000 clk=1 rst_n=1 start=0 busy=1 done=0
time=510000 clk=0 rst_n=1 start=0 busy=1 done=0
time=515000 clk=1 rst_n=1 start=0 busy=1 done=0
time=520000 clk=0 rst_n=1 start=0 busy=1 done=0
time=525000 clk=1 rst_n=1 start=0 busy=0 done=1
time=530000 clk=0 rst_n=1 start=0 busy=0 done=1
time=535000 clk=1 rst_n=1 start=0 busy=0 done=0
Checking fc1_acc_all for shared-input architecture ...
MATCH idx=0 global_idx=0 value=-30778
MATCH idx=1 global_idx=1 value=-33761
MATCH idx=2 global_idx=2 value=-26292
MATCH idx=3 global_idx=3 value=32890
MATCH idx=4 global_idx=4 value=84961
MATCH idx=5 global_idx=5 value=82286
MATCH idx=6 global_idx=6 value=-42871
MATCH idx=7 global_idx=7 value=-83495
MATCH idx=8 global_idx=8 value=14476
MATCH idx=9 global_idx=9 value=143175
MATCH idx=10 global_idx=10 value=50796
MATCH idx=11 global_idx=11 value=204030
MATCH idx=12 global_idx=12 value=27237
MATCH idx=13 global_idx=13 value=-70958
MATCH idx=14 global_idx=14 value=-7987
MATCH idx=15 global_idx=15 value=69688
MATCH idx=16 global_idx=16 value=88057
MATCH idx=17 global_idx=17 value=-30428
MATCH idx=18 global_idx=18 value=103647
MATCH idx=19 global_idx=19 value=74590
MATCH idx=20 global_idx=20 value=181469
MATCH idx=21 global_idx=21 value=-11999
MATCH idx=22 global_idx=22 value=33262
MATCH idx=23 global_idx=23 value=22503
MATCH idx=24 global_idx=24 value=12667
MATCH idx=25 global_idx=25 value=-71001
MATCH idx=26 global_idx=26 value=89749
MATCH idx=27 global_idx=27 value=-41266
MATCH idx=28 global_idx=28 value=17780
MATCH idx=29 global_idx=29 value=45129
MATCH idx=30 global_idx=30 value=-40512
MATCH idx=31 global_idx=31 value=39422
MATCH idx=32 global_idx=32 value=-186523
MATCH idx=33 global_idx=33 value=84098
MATCH idx=34 global_idx=34 value=105599
MATCH idx=35 global_idx=35 value=111699
MATCH idx=36 global_idx=36 value=129751
MATCH idx=37 global_idx=37 value=111784
MATCH idx=38 global_idx=38 value=35579
MATCH idx=39 global_idx=39 value=-62725
MATCH idx=40 global_idx=40 value=-7048
MATCH idx=41 global_idx=41 value=35904
MATCH idx=42 global_idx=42 value=-33587
MATCH idx=43 global_idx=43 value=-17150
MATCH idx=44 global_idx=44 value=-131331
MATCH idx=45 global_idx=45 value=84384
MATCH idx=46 global_idx=46 value=-24924
MATCH idx=47 global_idx=47 value=-79448
MATCH idx=48 global_idx=48 value=35748
MATCH idx=49 global_idx=49 value=71862
MATCH idx=50 global_idx=50 value=137625
MATCH idx=51 global_idx=51 value=3921
MATCH idx=52 global_idx=52 value=-27163
MATCH idx=53 global_idx=53 value=87933
MATCH idx=54 global_idx=54 value=-50122
MATCH idx=55 global_idx=55 value=12515
MATCH idx=56 global_idx=56 value=34636
MATCH idx=57 global_idx=57 value=113111
MATCH idx=58 global_idx=58 value=-130900
MATCH idx=59 global_idx=59 value=106744
MATCH idx=60 global_idx=60 value=10320
MATCH idx=61 global_idx=61 value=-51794
MATCH idx=62 global_idx=62 value=66657
MATCH idx=63 global_idx=63 value=151667
MATCH idx=64 global_idx=64 value=-120468
MATCH idx=65 global_idx=65 value=-159868
MATCH idx=66 global_idx=66 value=93345
MATCH idx=67 global_idx=67 value=112988
MATCH idx=68 global_idx=68 value=127393
MATCH idx=69 global_idx=69 value=123097
MATCH idx=70 global_idx=70 value=174926
MATCH idx=71 global_idx=71 value=-64310
MATCH idx=72 global_idx=72 value=95366
MATCH idx=73 global_idx=73 value=-65186
MATCH idx=74 global_idx=74 value=77104
MATCH idx=75 global_idx=75 value=86763
MATCH idx=76 global_idx=76 value=-74663
MATCH idx=77 global_idx=77 value=-50076
MATCH idx=78 global_idx=78 value=-137016
MATCH idx=79 global_idx=79 value=1632
MATCH idx=80 global_idx=80 value=108374
MATCH idx=81 global_idx=81 value=72168
MATCH idx=82 global_idx=82 value=-14840
MATCH idx=83 global_idx=83 value=-80454
MATCH idx=84 global_idx=84 value=15926
MATCH idx=85 global_idx=85 value=158338
MATCH idx=86 global_idx=86 value=25279
MATCH idx=87 global_idx=87 value=-135680
MATCH idx=88 global_idx=88 value=110647
MATCH idx=89 global_idx=89 value=-78433
MATCH idx=90 global_idx=90 value=-35020
MATCH idx=91 global_idx=91 value=62847
MATCH idx=92 global_idx=92 value=8678
MATCH idx=93 global_idx=93 value=-83628
MATCH idx=94 global_idx=94 value=68715
MATCH idx=95 global_idx=95 value=59129
MATCH idx=96 global_idx=96 value=84174
MATCH idx=97 global_idx=97 value=-42893
MATCH idx=98 global_idx=98 value=-1099
MATCH idx=99 global_idx=99 value=64691
MATCH idx=100 global_idx=100 value=110406
MATCH idx=101 global_idx=101 value=40369
MATCH idx=102 global_idx=102 value=1419
MATCH idx=103 global_idx=103 value=83186
MATCH idx=104 global_idx=104 value=-85707
MATCH idx=105 global_idx=105 value=16581
MATCH idx=106 global_idx=106 value=80734
MATCH idx=107 global_idx=107 value=49325
MATCH idx=108 global_idx=108 value=24797
MATCH idx=109 global_idx=109 value=-77458
MATCH idx=110 global_idx=110 value=-45432
MATCH idx=111 global_idx=111 value=22701
MATCH idx=112 global_idx=112 value=-25321
MATCH idx=113 global_idx=113 value=17557
MATCH idx=114 global_idx=114 value=55627
MATCH idx=115 global_idx=115 value=73592
MATCH idx=116 global_idx=116 value=-92943
MATCH idx=117 global_idx=117 value=75767
MATCH idx=118 global_idx=118 value=48607
MATCH idx=119 global_idx=119 value=-32534
MATCH idx=120 global_idx=120 value=-49159
MATCH idx=121 global_idx=121 value=146206
MATCH idx=122 global_idx=122 value=-84614
MATCH idx=123 global_idx=123 value=90042
MATCH idx=124 global_idx=124 value=34624
MATCH idx=125 global_idx=125 value=-6985
MATCH idx=126 global_idx=126 value=-37106
MATCH idx=127 global_idx=127 value=41735
PASS: fc1_multi_block_shared_input matches fc1_acc_0.hex.
$finish called from file "../tb/tb_fc1_multi_block_shared_input.sv", line 96.
$finish at simulation time               536000
           V C S   S i m u l a t i o n   R e p o r t 
Time: 536000 ps
CPU Time:      0.220 seconds;       Data structure size:   3.2Mb
Sat Mar  7 23:59:35 2026
